%YAML 1.1
%TAG !u! tag:unity3d.com,2011:
--- !u!114 &11400000
MonoBehaviour:
  m_ObjectHideFlags: 0
  m_CorrespondingSourceObject: {fileID: 0}
  m_PrefabInstance: {fileID: 0}
  m_PrefabAsset: {fileID: 0}
  m_GameObject: {fileID: 0}
  m_Enabled: 1
  m_EditorHideFlags: 0
  m_Script: {fileID: 11500000, guid: 030a3ba322356b84e805f1dfb82f9291, type: 3}
  m_Name: Notebook
  m_EditorClassIdentifier: 
  _name: Notebook
  qRCodeContent: VAIO AR
  prefab: {fileID: 6673653084999261446, guid: 1df9ff615f7ef2649bcf52809934cf1b, type: 3}
  pDFFileName: manual-notebook
